{"url":"\/","ip":"18.111.102.227","pid":16932,"date":"2015-01-22T20:07:22+00:00","theme_name":"\/home\/content\/27\/9773927\/html\/LAG\/wp-content\/themes\/antioch-free\/functions.php","runtime":{"total":7.4645569324493,"wordpress":0.38667392730713,"theme":0.28820133209229,"plugins":3.2550201416016,"profile":3.4695866107941,"breakdown":{"p3-profiler":0.0027623176574707,"admin-bar-disabler":0.000579833984375,"advanced-sidebar-menu":0.0039846897125244,"all-in-one-event-calendar":0.63944745063782,"audio-player":0.0041851997375488,"bibly":0.0043540000915527,"captcha":0.033127546310425,"category-post-widget":0.0014357566833496,"comprehensive-google-map-plugin":1.1578140258789,"connections-link":0.0029115676879883,"connections":0.39319038391113,"contact-form-plugin":0.0012209415435791,"jetpack":0.32696747779846,"ml-slider":0.0049443244934082,"posts-in-page":0.0015299320220947,"subscribe2":0.025869846343994,"tablepress-automatic-url-conversion":0.00022101402282715,"tablepress":0.013134956359863,"theme-my-login":0.57792115211487,"w3-total-cache":0.017091512680054,"wordpress-access-control":0.042326211929321}},"memory":69468160,"stacksize":63376,"queries":167}
{"url":"\/wp-content\/themes\/antioch-free\/lib\/scripts\/scheme.php","ip":"18.111.102.227","pid":16932,"date":"2015-01-22T20:07:30+00:00","theme_name":"\/home\/content\/27\/9773927\/html\/LAG\/wp-content\/themes\/antioch-free\/functions.php","runtime":{"total":3.3488030433655,"wordpress":0,"theme":2.8849630355835,"plugins":0,"profile":0.46384000778198,"breakdown":[]},"memory":47972352,"stacksize":9550,"queries":12}
{"url":"\/wp-admin\/admin.php?page=stats&noheader&proxy&chart=admin-bar-hours-scale-2x","ip":"18.111.102.227","pid":16932,"date":"2015-01-22T20:07:34+00:00","theme_name":"\/home\/content\/27\/9773927\/html\/LAG\/wp-content\/themes\/antioch-free\/functions.php","runtime":{"total":3.4189558029175,"wordpress":0.20492649078369,"theme":0.036951541900635,"plugins":1.5067563056946,"profile":1.7005071640015,"breakdown":{"p3-profiler":0.0033071041107178,"admin-bar-disabler":0.00086307525634766,"advanced-sidebar-menu":0.0043292045593262,"all-in-one-event-calendar":0.63744688034058,"audio-player":0.0025882720947266,"bibly":0.0043540000915527,"captcha":0.0060153007507324,"category-post-widget":0.00093197822570801,"comprehensive-google-map-plugin":0.023905515670776,"w3-total-cache":0.22524166107178,"connections-link":0.0021378993988037,"connections":0.25597906112671,"contact-form-plugin":0.0021555423736572,"jetpack":0.2610490322113,"ml-slider":0.0056076049804688,"posts-in-page":0.0019748210906982,"subscribe2":0.017600297927856,"tablepress-automatic-url-conversion":0.0002739429473877,"tablepress":0.021614551544189,"theme-my-login":0.021553754806519,"wordpress-access-control":0.0078268051147461}},"memory":61865984,"stacksize":27637,"queries":61}
{"url":"\/?s=Loving%2C","ip":"18.111.102.227","pid":15302,"date":"2015-01-22T20:07:37+00:00","theme_name":"\/home\/content\/27\/9773927\/html\/LAG\/wp-content\/themes\/antioch-free\/functions.php","runtime":{"total":6.0061750411987,"wordpress":0.52303218841553,"theme":0.22896862030029,"plugins":2.9735898971558,"profile":2.2365102767944,"breakdown":{"p3-profiler":0.0027110576629639,"admin-bar-disabler":0.00052022933959961,"advanced-sidebar-menu":0.0038273334503174,"all-in-one-event-calendar":0.38743925094604,"audio-player":0.0042960643768311,"bibly":0.0054581165313721,"captcha":0.0064322948455811,"category-post-widget":0.0015017986297607,"comprehensive-google-map-plugin":0.026201486587524,"connections-link":0.0029349327087402,"connections":0.45005893707275,"contact-form-plugin":0.0013489723205566,"jetpack":0.21180129051208,"ml-slider":0.00547194480896,"posts-in-page":0.0020377635955811,"subscribe2":0.032699346542358,"tablepress-automatic-url-conversion":0.00034403800964355,"tablepress":0.043236494064331,"theme-my-login":0.47109031677246,"w3-total-cache":0.019742012023926,"wordpress-access-control":1.2944362163544}},"memory":59244544,"stacksize":37944,"queries":134}
{"url":"\/wp-content\/themes\/antioch-free\/lib\/scripts\/scheme.php","ip":"18.111.102.227","pid":15302,"date":"2015-01-22T20:07:44+00:00","theme_name":"\/home\/content\/27\/9773927\/html\/LAG\/wp-content\/themes\/antioch-free\/functions.php","runtime":{"total":1.6162049770355,"wordpress":0,"theme":1.1769032478333,"plugins":0,"profile":0.43930172920227,"breakdown":[]},"memory":47972352,"stacksize":9601,"queries":11}
{"url":"\/wp-admin\/admin.php?page=stats&noheader&proxy&chart=admin-bar-hours-scale-2x","ip":"18.111.102.227","pid":15302,"date":"2015-01-22T20:07:46+00:00","theme_name":"\/home\/content\/27\/9773927\/html\/LAG\/wp-content\/themes\/antioch-free\/functions.php","runtime":{"total":3.7501981258392,"wordpress":0.20079565048218,"theme":0.038415431976318,"plugins":1.8737010955811,"profile":1.8672621250153,"breakdown":{"p3-profiler":0.0023658275604248,"admin-bar-disabler":0.00069260597229004,"advanced-sidebar-menu":0.0039653778076172,"all-in-one-event-calendar":0.58011198043823,"audio-player":0.018653154373169,"bibly":0.0044183731079102,"captcha":0.0058188438415527,"category-post-widget":0.00089263916015625,"comprehensive-google-map-plugin":0.018523454666138,"w3-total-cache":0.23382878303528,"connections-link":0.0020360946655273,"connections":0.27060890197754,"contact-form-plugin":0.0019111633300781,"jetpack":0.66395115852356,"ml-slider":0.0046236515045166,"posts-in-page":0.0017673969268799,"subscribe2":0.018810749053955,"tablepress-automatic-url-conversion":0.00027322769165039,"tablepress":0.013705015182495,"theme-my-login":0.019527435302734,"wordpress-access-control":0.0072152614593506}},"memory":61603840,"stacksize":27376,"queries":61}
{"url":"\/?cat=1","ip":"18.111.102.227","pid":15302,"date":"2015-01-22T20:07:50+00:00","theme_name":"\/home\/content\/27\/9773927\/html\/LAG\/wp-content\/themes\/antioch-free\/functions.php","runtime":{"total":7.5439820289612,"wordpress":0.41206789016724,"theme":3.1924586296082,"plugins":1.7063276767731,"profile":2.2000415325165,"breakdown":{"p3-profiler":0.0024676322937012,"admin-bar-disabler":0.00044584274291992,"advanced-sidebar-menu":0.0035972595214844,"all-in-one-event-calendar":0.28954315185547,"audio-player":0.0057754516601562,"bibly":0.0040915012359619,"captcha":0.013679981231689,"category-post-widget":0.0014619827270508,"comprehensive-google-map-plugin":0.020222425460815,"connections-link":0.0023651123046875,"connections":0.43102216720581,"contact-form-plugin":0.0017223358154297,"jetpack":0.22105693817139,"ml-slider":0.0049088001251221,"posts-in-page":0.0020103454589844,"subscribe2":0.033652544021606,"tablepress-automatic-url-conversion":0.00025725364685059,"tablepress":0.017667770385742,"theme-my-login":0.59345841407776,"w3-total-cache":0.014861106872559,"wordpress-access-control":0.042059659957886}},"memory":59244544,"stacksize":37409,"queries":144}
{"url":"\/wp-content\/themes\/antioch-free\/lib\/scripts\/scheme.php","ip":"18.111.102.227","pid":15302,"date":"2015-01-22T20:07:58+00:00","theme_name":"\/home\/content\/27\/9773927\/html\/LAG\/wp-content\/themes\/antioch-free\/functions.php","runtime":{"total":0.97113418579102,"wordpress":0,"theme":0.52970790863037,"plugins":0,"profile":0.44142627716064,"breakdown":[]},"memory":48234496,"stacksize":9550,"queries":13}
{"url":"\/wp-admin\/admin.php?page=stats&noheader&proxy&chart=admin-bar-hours-scale-2x","ip":"18.111.102.227","pid":15302,"date":"2015-01-22T20:07:59+00:00","theme_name":"\/home\/content\/27\/9773927\/html\/LAG\/wp-content\/themes\/antioch-free\/functions.php","runtime":{"total":4.4953038692474,"wordpress":0.19773054122925,"theme":0.035552024841309,"plugins":2.647607088089,"profile":2.8777091503143,"breakdown":{"p3-profiler":0.0025115013122559,"admin-bar-disabler":0.00059270858764648,"advanced-sidebar-menu":0.0039317607879639,"all-in-one-event-calendar":0.64916515350342,"audio-player":0.0019893646240234,"bibly":0.0042705535888672,"captcha":0.0061430931091309,"category-post-widget":0.00091266632080078,"comprehensive-google-map-plugin":0.01875638961792,"w3-total-cache":0.12976717948914,"connections-link":0.0020909309387207,"connections":0.23218846321106,"contact-form-plugin":0.0018384456634521,"jetpack":1.5273172855377,"ml-slider":0.0051188468933105,"posts-in-page":0.0016176700592041,"subscribe2":0.017412185668945,"tablepress-automatic-url-conversion":0.00026607513427734,"tablepress":0.014326095581055,"theme-my-login":0.020071029663086,"wordpress-access-control":0.0073196887969971}},"memory":61603840,"stacksize":27376,"queries":61}
{"url":"\/?cat=7","ip":"18.111.102.227","pid":15302,"date":"2015-01-22T20:08:04+00:00","theme_name":"\/home\/content\/27\/9773927\/html\/LAG\/wp-content\/themes\/antioch-free\/functions.php","runtime":{"total":7.3774490356445,"wordpress":0.44343209266663,"theme":0.39792084693909,"plugins":4.6325891017914,"profile":1.883891582489,"breakdown":{"p3-profiler":0.0028464794158936,"admin-bar-disabler":0.00046157836914062,"advanced-sidebar-menu":0.0037310123443604,"all-in-one-event-calendar":0.27976012229919,"audio-player":0.0039780139923096,"bibly":0.0040714740753174,"captcha":0.017574548721313,"category-post-widget":0.0011627674102783,"comprehensive-google-map-plugin":0.018342018127441,"connections-link":0.0022454261779785,"connections":0.39241695404053,"contact-form-plugin":0.0011911392211914,"jetpack":0.18970084190369,"ml-slider":0.0050656795501709,"posts-in-page":0.0018408298492432,"subscribe2":0.026590347290039,"tablepress-automatic-url-conversion":0.00026512145996094,"tablepress":0.022199153900146,"theme-my-login":0.61090421676636,"w3-total-cache":0.014594078063965,"wordpress-access-control":3.0336472988129}},"memory":58195968,"stacksize":34196,"queries":138}
{"url":"\/wp-content\/themes\/antioch-free\/lib\/scripts\/scheme.php","ip":"18.111.102.227","pid":15302,"date":"2015-01-22T20:08:12+00:00","theme_name":"\/home\/content\/27\/9773927\/html\/LAG\/wp-content\/themes\/antioch-free\/functions.php","runtime":{"total":1.1560909748077,"wordpress":0,"theme":0.65576004981995,"plugins":0,"profile":0.50033092498779,"breakdown":[]},"memory":47972352,"stacksize":9550,"queries":17}
{"url":"\/wp-admin\/admin.php?page=stats&noheader&proxy&chart=admin-bar-hours-scale-2x","ip":"18.111.102.227","pid":15302,"date":"2015-01-22T20:08:14+00:00","theme_name":"\/home\/content\/27\/9773927\/html\/LAG\/wp-content\/themes\/antioch-free\/functions.php","runtime":{"total":3.7729001045227,"wordpress":0.20452284812927,"theme":0.037926435470581,"plugins":1.8220052719116,"profile":1.9395658969879,"breakdown":{"p3-profiler":0.0024983882904053,"admin-bar-disabler":0.00063061714172363,"advanced-sidebar-menu":0.0038609504699707,"all-in-one-event-calendar":0.70212888717651,"audio-player":0.0022387504577637,"bibly":0.0070347785949707,"captcha":0.00606369972229,"category-post-widget":0.0011706352233887,"comprehensive-google-map-plugin":0.021239995956421,"w3-total-cache":0.27761554718018,"connections-link":0.0020401477813721,"connections":0.24799084663391,"contact-form-plugin":0.0018775463104248,"jetpack":0.47261333465576,"ml-slider":0.0050091743469238,"posts-in-page":0.0015921592712402,"subscribe2":0.017416000366211,"tablepress-automatic-url-conversion":0.00027346611022949,"tablepress":0.016256809234619,"theme-my-login":0.023607969284058,"wordpress-access-control":0.0088455677032471}},"memory":61865984,"stacksize":27637,"queries":61}
{"url":"\/?cat=10","ip":"18.111.102.227","pid":15278,"date":"2015-01-22T20:08:18+00:00","theme_name":"\/home\/content\/27\/9773927\/html\/LAG\/wp-content\/themes\/antioch-free\/functions.php","runtime":{"total":4.4240958690643,"wordpress":0.46996831893921,"theme":0.16055750846863,"plugins":1.7417371273041,"profile":2.0312247276306,"breakdown":{"p3-profiler":0.0032720565795898,"admin-bar-disabler":0.00068497657775879,"advanced-sidebar-menu":0.0074570178985596,"all-in-one-event-calendar":0.33756756782532,"audio-player":0.0048110485076904,"bibly":0.004641056060791,"captcha":0.017305612564087,"category-post-widget":0.0014934539794922,"comprehensive-google-map-plugin":0.029187202453613,"connections-link":0.0030343532562256,"connections":0.4642505645752,"contact-form-plugin":0.001847505569458,"jetpack":0.31840443611145,"ml-slider":0.0071160793304443,"posts-in-page":0.0022931098937988,"subscribe2":0.02922511100769,"tablepress-automatic-url-conversion":0.00067496299743652,"tablepress":0.027762413024902,"theme-my-login":0.40477228164673,"w3-total-cache":0.019992589950562,"wordpress-access-control":0.055943727493286}},"memory":57671680,"stacksize":33125,"queries":136}
{"url":"\/wp-content\/themes\/antioch-free\/lib\/scripts\/scheme.php","ip":"18.111.102.227","pid":15278,"date":"2015-01-22T20:08:24+00:00","theme_name":"\/home\/content\/27\/9773927\/html\/LAG\/wp-content\/themes\/antioch-free\/functions.php","runtime":{"total":0.91036987304688,"wordpress":0,"theme":0.47676420211792,"plugins":0,"profile":0.43360567092896,"breakdown":[]},"memory":48234496,"stacksize":9550,"queries":13}
{"url":"\/wp-admin\/admin.php?page=stats&noheader&proxy&chart=admin-bar-hours-scale-2x","ip":"18.111.102.227","pid":15278,"date":"2015-01-22T20:08:25+00:00","theme_name":"\/home\/content\/27\/9773927\/html\/LAG\/wp-content\/themes\/antioch-free\/functions.php","runtime":{"total":3.8803341388702,"wordpress":0.45344018936157,"theme":0.037000179290771,"plugins":1.7442576885223,"profile":1.9936583042145,"breakdown":{"p3-profiler":0.002556324005127,"admin-bar-disabler":0.00058126449584961,"advanced-sidebar-menu":0.0038197040557861,"all-in-one-event-calendar":0.61663174629211,"audio-player":0.0023367404937744,"bibly":0.0045289993286133,"captcha":0.0062031745910645,"category-post-widget":0.00087738037109375,"comprehensive-google-map-plugin":0.029030799865723,"w3-total-cache":0.15598821640015,"connections-link":0.0022661685943604,"connections":0.26921725273132,"contact-form-plugin":0.0021729469299316,"jetpack":0.57717204093933,"ml-slider":0.0046882629394531,"posts-in-page":0.0016520023345947,"subscribe2":0.021003246307373,"tablepress-automatic-url-conversion":0.00027084350585938,"tablepress":0.014976263046265,"theme-my-login":0.021089315414429,"wordpress-access-control":0.007194995880127}},"memory":61603840,"stacksize":27376,"queries":61}
{"url":"\/?cat=9","ip":"18.111.102.227","pid":15278,"date":"2015-01-22T20:08:29+00:00","theme_name":"\/home\/content\/27\/9773927\/html\/LAG\/wp-content\/themes\/antioch-free\/functions.php","runtime":{"total":4.4933331012726,"wordpress":0.52149963378906,"theme":0.44477844238281,"plugins":1.6156330108643,"profile":1.9169425964355,"breakdown":{"p3-profiler":0.0024211406707764,"admin-bar-disabler":0.00044918060302734,"advanced-sidebar-menu":0.0037071704864502,"all-in-one-event-calendar":0.26761984825134,"audio-player":0.0033822059631348,"bibly":0.0040998458862305,"captcha":0.015174150466919,"category-post-widget":0.0016067028045654,"comprehensive-google-map-plugin":0.016831398010254,"connections-link":0.0022168159484863,"connections":0.37841439247131,"contact-form-plugin":0.0014405250549316,"jetpack":0.19240617752075,"ml-slider":0.004310131072998,"posts-in-page":0.0014727115631104,"subscribe2":0.063912630081177,"tablepress-automatic-url-conversion":0.00026178359985352,"tablepress":0.018448829650879,"theme-my-login":0.55532240867615,"w3-total-cache":0.017285346984863,"wordpress-access-control":0.064849615097046}},"memory":58195968,"stacksize":34196,"queries":138}
{"url":"\/wp-content\/themes\/antioch-free\/lib\/scripts\/scheme.php","ip":"18.111.102.227","pid":15278,"date":"2015-01-22T20:08:34+00:00","theme_name":"\/home\/content\/27\/9773927\/html\/LAG\/wp-content\/themes\/antioch-free\/functions.php","runtime":{"total":0.98239398002625,"wordpress":0,"theme":0.5339732170105,"plugins":0,"profile":0.44842076301575,"breakdown":[]},"memory":48234496,"stacksize":9550,"queries":13}
{"url":"\/wp-admin\/admin.php?page=stats&noheader&proxy&chart=admin-bar-hours-scale-2x","ip":"18.111.102.227","pid":15278,"date":"2015-01-22T20:08:36+00:00","theme_name":"\/home\/content\/27\/9773927\/html\/LAG\/wp-content\/themes\/antioch-free\/functions.php","runtime":{"total":3.7887630462646,"wordpress":0.24072432518005,"theme":0.050232648849487,"plugins":1.8378946781158,"profile":2.0742964744568,"breakdown":{"p3-profiler":0.0026917457580566,"admin-bar-disabler":0.00063848495483398,"advanced-sidebar-menu":0.0042672157287598,"all-in-one-event-calendar":0.62088990211487,"audio-player":0.006706714630127,"bibly":0.0047831535339355,"captcha":0.00577712059021,"category-post-widget":0.00092363357543945,"comprehensive-google-map-plugin":0.02238655090332,"w3-total-cache":0.19338846206665,"connections-link":0.0020489692687988,"connections":0.25400900840759,"contact-form-plugin":0.0022885799407959,"jetpack":0.63821816444397,"ml-slider":0.0048015117645264,"posts-in-page":0.0016326904296875,"subscribe2":0.017783164978027,"tablepress-automatic-url-conversion":0.00033688545227051,"tablepress":0.023850917816162,"theme-my-login":0.020396947860718,"wordpress-access-control":0.010074853897095}},"memory":61603840,"stacksize":27376,"queries":61}
{"url":"\/?p=1186","ip":"18.111.102.227","pid":15278,"date":"2015-01-22T20:08:40+00:00","theme_name":"\/home\/content\/27\/9773927\/html\/LAG\/wp-content\/themes\/antioch-free\/functions.php","runtime":{"total":4.3585391044617,"wordpress":0.54268145561218,"theme":0.095372438430786,"plugins":1.7337753772736,"profile":1.9553108215332,"breakdown":{"p3-profiler":0.0032351016998291,"admin-bar-disabler":0.00050187110900879,"advanced-sidebar-menu":0.0044558048248291,"all-in-one-event-calendar":0.29062747955322,"audio-player":0.0045316219329834,"bibly":0.0041086673736572,"captcha":0.0088376998901367,"category-post-widget":0.00093483924865723,"comprehensive-google-map-plugin":0.020832061767578,"connections-link":0.002429723739624,"connections":0.36429405212402,"contact-form-plugin":0.001220703125,"jetpack":0.19381046295166,"ml-slider":0.0045702457427979,"posts-in-page":0.0014770030975342,"subscribe2":0.024305105209351,"tablepress-automatic-url-conversion":0.00036811828613281,"tablepress":0.012263536453247,"theme-my-login":0.73535108566284,"w3-total-cache":0.01405930519104,"wordpress-access-control":0.041560888290405}},"memory":58195968,"stacksize":34450,"queries":138}
{"url":"\/wp-content\/themes\/antioch-free\/lib\/scripts\/scheme.php","ip":"18.111.102.227","pid":15278,"date":"2015-01-22T20:08:45+00:00","theme_name":"\/home\/content\/27\/9773927\/html\/LAG\/wp-content\/themes\/antioch-free\/functions.php","runtime":{"total":0.90551710128784,"wordpress":0,"theme":0.47742867469788,"plugins":0,"profile":0.42808842658997,"breakdown":[]},"memory":48234496,"stacksize":9550,"queries":13}
{"url":"\/wp-admin\/admin.php?page=stats&noheader&proxy&chart=admin-bar-hours-scale-2x","ip":"18.111.102.227","pid":15278,"date":"2015-01-22T20:08:46+00:00","theme_name":"\/home\/content\/27\/9773927\/html\/LAG\/wp-content\/themes\/antioch-free\/functions.php","runtime":{"total":3.7997438907623,"wordpress":0.24221754074097,"theme":0.036497831344604,"plugins":1.8808853626251,"profile":2.1211996078491,"breakdown":{"p3-profiler":0.017328262329102,"admin-bar-disabler":0.00057768821716309,"advanced-sidebar-menu":0.0038926601409912,"all-in-one-event-calendar":0.58078479766846,"audio-player":0.0032978057861328,"bibly":0.0042815208435059,"captcha":0.0057506561279297,"category-post-widget":0.00091338157653809,"comprehensive-google-map-plugin":0.024580717086792,"w3-total-cache":0.13958597183228,"connections-link":0.0020263195037842,"connections":0.24715137481689,"contact-form-plugin":0.0018434524536133,"jetpack":0.77634286880493,"ml-slider":0.0047762393951416,"posts-in-page":0.0017192363739014,"subscribe2":0.017085313796997,"tablepress-automatic-url-conversion":0.00026082992553711,"tablepress":0.021291255950928,"theme-my-login":0.020078182220459,"wordpress-access-control":0.0073168277740479}},"memory":61603840,"stacksize":27376,"queries":61}
{"url":"\/?p=470","ip":"18.111.102.227","pid":15278,"date":"2015-01-22T20:08:50+00:00","theme_name":"\/home\/content\/27\/9773927\/html\/LAG\/wp-content\/themes\/antioch-free\/functions.php","runtime":{"total":11.423593997955,"wordpress":0.61372208595276,"theme":0.15533947944641,"plugins":8.6771187782288,"profile":1.9536530971527,"breakdown":{"p3-profiler":0.0089075565338135,"admin-bar-disabler":0.00045228004455566,"advanced-sidebar-menu":0.0038392543792725,"all-in-one-event-calendar":7.1102440357208,"audio-player":0.0068206787109375,"bibly":0.0043573379516602,"captcha":0.046943187713623,"category-post-widget":0.0010387897491455,"comprehensive-google-map-plugin":0.016357183456421,"connections-link":0.0020656585693359,"connections":0.3852219581604,"contact-form-plugin":0.0012016296386719,"jetpack":0.34955906867981,"ml-slider":0.0049920082092285,"posts-in-page":0.0022661685943604,"subscribe2":0.099820375442505,"tablepress-automatic-url-conversion":0.00026917457580566,"tablepress":0.012834072113037,"theme-my-login":0.5516951084137,"w3-total-cache":0.015338897705078,"wordpress-access-control":0.052894353866577}},"memory":58458112,"stacksize":35004,"queries":138}
{"url":"\/wp-content\/themes\/antioch-free\/lib\/scripts\/scheme.php","ip":"18.111.102.227","pid":15278,"date":"2015-01-22T20:09:02+00:00","theme_name":"\/home\/content\/27\/9773927\/html\/LAG\/wp-content\/themes\/antioch-free\/functions.php","runtime":{"total":1.1306521892548,"wordpress":0,"theme":0.61070823669434,"plugins":0,"profile":0.51994395256042,"breakdown":[]},"memory":47972352,"stacksize":9550,"queries":12}
{"url":"\/wp-admin\/admin.php?page=stats&noheader&proxy&chart=admin-bar-hours-scale-2x","ip":"18.111.102.227","pid":15278,"date":"2015-01-22T20:09:04+00:00","theme_name":"\/home\/content\/27\/9773927\/html\/LAG\/wp-content\/themes\/antioch-free\/functions.php","runtime":{"total":4.0292460918427,"wordpress":0.24122476577759,"theme":0.040576219558716,"plugins":1.9490010738373,"profile":2.2505071163177,"breakdown":{"p3-profiler":0.0028026103973389,"admin-bar-disabler":0.00078582763671875,"advanced-sidebar-menu":0.0053975582122803,"all-in-one-event-calendar":0.63504528999329,"audio-player":0.0027666091918945,"bibly":0.0043063163757324,"captcha":0.0067059993743896,"category-post-widget":0.0015740394592285,"comprehensive-google-map-plugin":0.032188415527344,"w3-total-cache":0.19497799873352,"connections-link":0.0031619071960449,"connections":0.26518583297729,"contact-form-plugin":0.002640962600708,"jetpack":0.71063876152039,"ml-slider":0.0065305233001709,"posts-in-page":0.0018069744110107,"subscribe2":0.01926064491272,"tablepress-automatic-url-conversion":0.00035500526428223,"tablepress":0.019678354263306,"theme-my-login":0.025804996490479,"wordpress-access-control":0.0073864459991455}},"memory":61603840,"stacksize":27376,"queries":61}
{"url":"\/?p=469","ip":"18.111.102.227","pid":15278,"date":"2015-01-22T20:09:08+00:00","theme_name":"\/home\/content\/27\/9773927\/html\/LAG\/wp-content\/themes\/antioch-free\/functions.php","runtime":{"total":6.5324351787567,"wordpress":0.48651909828186,"theme":0.097245216369629,"plugins":3.8870460987091,"profile":2.0235977172852,"breakdown":{"p3-profiler":0.002469539642334,"admin-bar-disabler":0.00045895576477051,"advanced-sidebar-menu":0.0036911964416504,"all-in-one-event-calendar":0.55999040603638,"audio-player":0.0049316883087158,"bibly":0.0065038204193115,"captcha":0.047031879425049,"category-post-widget":0.0012698173522949,"comprehensive-google-map-plugin":0.021367311477661,"connections-link":0.0030663013458252,"connections":0.43615245819092,"contact-form-plugin":0.001209020614624,"jetpack":0.21244692802429,"ml-slider":0.0045552253723145,"posts-in-page":0.0020496845245361,"subscribe2":0.025926113128662,"tablepress-automatic-url-conversion":0.00036120414733887,"tablepress":0.011908531188965,"theme-my-login":0.55391907691956,"w3-total-cache":0.014201164245605,"wordpress-access-control":1.9735357761383}},"memory":58195968,"stacksize":34649,"queries":140}
{"url":"\/wp-content\/themes\/antioch-free\/lib\/scripts\/scheme.php","ip":"18.111.102.227","pid":15278,"date":"2015-01-22T20:09:15+00:00","theme_name":"\/home\/content\/27\/9773927\/html\/LAG\/wp-content\/themes\/antioch-free\/functions.php","runtime":{"total":1.1549129486084,"wordpress":0,"theme":0.67795324325562,"plugins":0,"profile":0.47695970535278,"breakdown":[]},"memory":47972352,"stacksize":9550,"queries":16}
{"url":"\/wp-admin\/admin.php?page=stats&noheader&proxy&chart=admin-bar-hours-scale-2x","ip":"18.111.102.227","pid":15278,"date":"2015-01-22T20:09:17+00:00","theme_name":"\/home\/content\/27\/9773927\/html\/LAG\/wp-content\/themes\/antioch-free\/functions.php","runtime":{"total":4.186311006546,"wordpress":0.29982614517212,"theme":0.056401252746582,"plugins":1.8085825443268,"profile":2.3700096607208,"breakdown":{"p3-profiler":0.003471851348877,"admin-bar-disabler":0.00079202651977539,"advanced-sidebar-menu":0.0038952827453613,"all-in-one-event-calendar":0.56936979293823,"audio-player":0.0025980472564697,"bibly":0.0065340995788574,"captcha":0.0060660839080811,"category-post-widget":0.0010921955108643,"comprehensive-google-map-plugin":0.026527881622314,"w3-total-cache":0.12855172157288,"connections-link":0.00288987159729,"connections":0.31039595603943,"contact-form-plugin":0.0024960041046143,"jetpack":0.65166711807251,"ml-slider":0.0055637359619141,"posts-in-page":0.0020339488983154,"subscribe2":0.027081966400146,"tablepress-automatic-url-conversion":0.00029921531677246,"tablepress":0.019337177276611,"theme-my-login":0.028435945510864,"wordpress-access-control":0.0094826221466064}},"memory":61603840,"stacksize":27376,"queries":61}
{"url":"\/?p=456","ip":"18.111.102.227","pid":15278,"date":"2015-01-22T20:09:22+00:00","theme_name":"\/home\/content\/27\/9773927\/html\/LAG\/wp-content\/themes\/antioch-free\/functions.php","runtime":{"total":6.4536170959473,"wordpress":0.55453515052795,"theme":0.11935305595398,"plugins":3.7266657352448,"profile":2.0260775089264,"breakdown":{"p3-profiler":0.0037534236907959,"admin-bar-disabler":0.00049376487731934,"advanced-sidebar-menu":0.0083866119384766,"all-in-one-event-calendar":0.33742904663086,"audio-player":0.005840539932251,"bibly":0.0047824382781982,"captcha":0.012269020080566,"category-post-widget":0.00096487998962402,"comprehensive-google-map-plugin":0.0275559425354,"connections-link":0.0023200511932373,"connections":0.46387910842896,"contact-form-plugin":0.0012409687042236,"jetpack":0.32912945747375,"ml-slider":0.0086991786956787,"posts-in-page":0.0026412010192871,"subscribe2":0.046861886978149,"tablepress-automatic-url-conversion":0.00033092498779297,"tablepress":0.014304399490356,"theme-my-login":0.39700031280518,"w3-total-cache":0.025555372238159,"wordpress-access-control":2.0332272052765}},"memory":58195968,"stacksize":34645,"queries":138}
{"url":"\/wp-content\/themes\/antioch-free\/lib\/scripts\/scheme.php","ip":"18.111.102.227","pid":15278,"date":"2015-01-22T20:09:29+00:00","theme_name":"\/home\/content\/27\/9773927\/html\/LAG\/wp-content\/themes\/antioch-free\/functions.php","runtime":{"total":1.0471341609955,"wordpress":0,"theme":0.59968543052673,"plugins":0,"profile":0.44744873046875,"breakdown":[]},"memory":47972352,"stacksize":9550,"queries":12}
{"url":"\/wp-admin\/admin.php?page=stats&noheader&proxy&chart=admin-bar-hours-scale-2x","ip":"18.111.102.227","pid":15278,"date":"2015-01-22T20:09:30+00:00","theme_name":"\/home\/content\/27\/9773927\/html\/LAG\/wp-content\/themes\/antioch-free\/functions.php","runtime":{"total":3.7156550884247,"wordpress":0.23255252838135,"theme":0.038911819458008,"plugins":1.7598910331726,"profile":2.2406921386719,"breakdown":{"p3-profiler":0.0024435520172119,"admin-bar-disabler":0.00060343742370605,"advanced-sidebar-menu":0.0039310455322266,"all-in-one-event-calendar":0.46834778785706,"audio-player":0.0021059513092041,"bibly":0.0044190883636475,"captcha":0.0056233406066895,"category-post-widget":0.00092053413391113,"comprehensive-google-map-plugin":0.020451068878174,"w3-total-cache":0.13733100891113,"connections-link":0.0020592212677002,"connections":0.25460243225098,"contact-form-plugin":0.0019865036010742,"jetpack":0.78527402877808,"ml-slider":0.0050044059753418,"posts-in-page":0.0016462802886963,"subscribe2":0.020036220550537,"tablepress-automatic-url-conversion":0.00025796890258789,"tablepress":0.014497995376587,"theme-my-login":0.020687341690063,"wordpress-access-control":0.0076618194580078}},"memory":61603840,"stacksize":27376,"queries":61}
{"url":"\/wp-admin\/","ip":"18.111.102.227","pid":15278,"date":"2015-01-22T20:09:34+00:00","theme_name":"\/home\/content\/27\/9773927\/html\/LAG\/wp-content\/themes\/antioch-free\/functions.php","runtime":{"total":5.0478410720825,"wordpress":0.60752201080322,"theme":0.059340476989746,"plugins":1.9761667251587,"profile":2.3280544281006,"breakdown":{"p3-profiler":0.0042860507965088,"admin-bar-disabler":0.00064325332641602,"advanced-sidebar-menu":0.0038993358612061,"all-in-one-event-calendar":0.66761708259583,"audio-player":0.010098934173584,"bibly":0.0044059753417969,"captcha":0.0057942867279053,"category-post-widget":0.00089025497436523,"comprehensive-google-map-plugin":0.02201509475708,"w3-total-cache":0.53827023506165,"connections-link":0.0022685527801514,"connections":0.2697286605835,"contact-form-plugin":0.002880334854126,"jetpack":0.3544614315033,"ml-slider":0.013717174530029,"posts-in-page":0.0015900135040283,"subscribe2":0.017459869384766,"tablepress-automatic-url-conversion":0.00026726722717285,"tablepress":0.016990184783936,"theme-my-login":0.031262159347534,"wordpress-access-control":0.0076205730438232}},"memory":65798144,"stacksize":33477,"queries":85}
{"url":"\/?ai1ec_render_js=common_backend&is_backend=true&ver=2.1.9","ip":"18.111.102.227","pid":15278,"date":"2015-01-22T20:09:40+00:00","theme_name":"\/home\/content\/27\/9773927\/html\/LAG\/wp-content\/themes\/antioch-free\/functions.php","runtime":{"total":1.2953770160675,"wordpress":0.10040926933289,"theme":0.065327405929565,"plugins":0.63321375846863,"profile":0.48998165130615,"breakdown":{"p3-profiler":0.0024337768554688,"admin-bar-disabler":0.00045156478881836,"advanced-sidebar-menu":0.0037829875946045,"all-in-one-event-calendar":0.21108269691467,"audio-player":0.0031521320343018,"bibly":0.0040519237518311,"captcha":0.016793727874756,"category-post-widget":0.0013461112976074,"comprehensive-google-map-plugin":0.017123460769653,"connections-link":0.0019075870513916,"connections":0.11662530899048,"contact-form-plugin":0.001213550567627,"jetpack":0.17529988288879,"ml-slider":0.0053105354309082,"posts-in-page":0.0015013217926025,"subscribe2":0.01870584487915,"tablepress-automatic-url-conversion":0.00034213066101074,"tablepress":0.011747121810913,"theme-my-login":0.019487142562866,"w3-total-cache":0.012882709503174,"wordpress-access-control":0.007972240447998}},"memory":49545216,"stacksize":10071,"queries":50}
{"url":"\/wp-admin\/admin.php?page=stats&noheader&dashboard&width=646","ip":"18.111.102.227","pid":15278,"date":"2015-01-22T20:09:41+00:00","theme_name":"\/home\/content\/27\/9773927\/html\/LAG\/wp-content\/themes\/antioch-free\/functions.php","runtime":{"total":3.9957950115204,"wordpress":0.21462941169739,"theme":0.036666631698608,"plugins":1.8413329124451,"profile":1.964225769043,"breakdown":{"p3-profiler":0.0022201538085938,"admin-bar-disabler":0.00059008598327637,"advanced-sidebar-menu":0.0038633346557617,"all-in-one-event-calendar":0.85693264007568,"audio-player":0.0019495487213135,"bibly":0.0054619312286377,"captcha":0.0057556629180908,"category-post-widget":0.00095605850219727,"comprehensive-google-map-plugin":0.014560699462891,"w3-total-cache":0.2016384601593,"connections-link":0.0021998882293701,"connections":0.28984522819519,"contact-form-plugin":0.0026748180389404,"jetpack":0.34769058227539,"ml-slider":0.0057582855224609,"posts-in-page":0.0017862319946289,"subscribe2":0.023721218109131,"tablepress-automatic-url-conversion":0.00028681755065918,"tablepress":0.016268730163574,"theme-my-login":0.045284509658813,"wordpress-access-control":0.011888027191162}},"memory":61865984,"stacksize":27843,"queries":77}
{"url":"\/wp-admin\/edit.php","ip":"18.111.102.227","pid":15303,"date":"2015-01-22T20:09:41+00:00","theme_name":"\/home\/content\/27\/9773927\/html\/LAG\/wp-content\/themes\/antioch-free\/functions.php","runtime":{"total":7.2597031593323,"wordpress":0.47815179824829,"theme":0.06117057800293,"plugins":4.0462019443512,"profile":2.6400637626648,"breakdown":{"p3-profiler":0.0027868747711182,"admin-bar-disabler":0.00062084197998047,"advanced-sidebar-menu":0.0042064189910889,"all-in-one-event-calendar":0.49972605705261,"audio-player":0.0018219947814941,"bibly":0.0043525695800781,"captcha":0.0063166618347168,"category-post-widget":0.0011000633239746,"comprehensive-google-map-plugin":0.024935007095337,"w3-total-cache":0.20640397071838,"connections-link":0.0024971961975098,"connections":2.9292480945587,"contact-form-plugin":0.0026950836181641,"jetpack":0.26769876480103,"ml-slider":0.0052919387817383,"posts-in-page":0.0023167133331299,"subscribe2":0.027813196182251,"tablepress-automatic-url-conversion":0.00026416778564453,"tablepress":0.015618801116943,"theme-my-login":0.032614707946777,"wordpress-access-control":0.0078728199005127}},"memory":65798144,"stacksize":33597,"queries":85}
{"url":"\/?ai1ec_render_js=common_backend&is_backend=true&ver=2.1.9","ip":"18.111.102.227","pid":15303,"date":"2015-01-22T20:09:49+00:00","theme_name":"\/home\/content\/27\/9773927\/html\/LAG\/wp-content\/themes\/antioch-free\/functions.php","runtime":{"total":14.527104854584,"wordpress":0.10347700119019,"theme":0.071794509887695,"plugins":13.793970346451,"profile":0.54328036308289,"breakdown":{"p3-profiler":0.002946138381958,"admin-bar-disabler":0.0005950927734375,"advanced-sidebar-menu":0.0038390159606934,"all-in-one-event-calendar":0.12657260894775,"audio-player":0.0018460750579834,"bibly":0.0046906471252441,"captcha":0.030793428421021,"category-post-widget":0.0019898414611816,"comprehensive-google-map-plugin":0.014336824417114,"connections-link":0.002852201461792,"connections":13.339685678482,"contact-form-plugin":0.0014939308166504,"jetpack":0.17416453361511,"ml-slider":0.0048322677612305,"posts-in-page":0.0015227794647217,"subscribe2":0.023223638534546,"tablepress-automatic-url-conversion":0.00036811828613281,"tablepress":0.012510061264038,"theme-my-login":0.023336172103882,"w3-total-cache":0.014052629470825,"wordpress-access-control":0.0083186626434326}},"memory":49545216,"stacksize":10073,"queries":49}
{"url":"\/wp-admin\/admin-ajax.php","ip":"18.111.102.227","pid":15303,"date":"2015-01-22T20:10:04+00:00","theme_name":"\/home\/content\/27\/9773927\/html\/LAG\/wp-content\/themes\/antioch-free\/functions.php","runtime":{"total":2.0174899101257,"wordpress":0.14096093177795,"theme":0.036739349365234,"plugins":0.71158242225647,"profile":1.1444029808044,"breakdown":{"p3-profiler":0.0029506683349609,"admin-bar-disabler":0.00056171417236328,"advanced-sidebar-menu":0.0039947032928467,"all-in-one-event-calendar":0.10449409484863,"audio-player":0.0025534629821777,"bibly":0.0043714046478271,"captcha":0.0019786357879639,"category-post-widget":0.00087809562683105,"comprehensive-google-map-plugin":0.01994776725769,"w3-total-cache":0.094552516937256,"connections-link":0.002763032913208,"connections":0.25789022445679,"contact-form-plugin":0.001107931137085,"jetpack":0.15308690071106,"ml-slider":0.0045602321624756,"posts-in-page":0.0015394687652588,"subscribe2":0.017184972763062,"tablepress-automatic-url-conversion":0.00026965141296387,"tablepress":0.0099756717681885,"theme-my-login":0.019434928894043,"wordpress-access-control":0.0074863433837891}},"memory":60293120,"stacksize":25199,"queries":72}
{"url":"\/wp-admin\/plugins.php","ip":"18.111.102.227","pid":15278,"date":"2015-01-22T20:10:04+00:00","theme_name":"\/home\/content\/27\/9773927\/html\/LAG\/wp-content\/themes\/antioch-free\/functions.php","runtime":{"total":5.3061368465424,"wordpress":0.55364561080933,"theme":0.041089057922363,"plugins":2.2834312915802,"profile":2.544171333313,"breakdown":{"p3-profiler":0.0033059120178223,"admin-bar-disabler":0.00054550170898438,"advanced-sidebar-menu":0.0037140846252441,"all-in-one-event-calendar":0.44748497009277,"audio-player":0.0020174980163574,"bibly":0.0045895576477051,"captcha":0.010250329971313,"category-post-widget":0.0010998249053955,"comprehensive-google-map-plugin":0.02016019821167,"w3-total-cache":0.43444323539734,"connections-link":0.0023503303527832,"connections":1.0431070327759,"contact-form-plugin":0.0050857067108154,"jetpack":0.2168869972229,"ml-slider":0.0050079822540283,"posts-in-page":0.0016686916351318,"subscribe2":0.020546674728394,"tablepress-automatic-url-conversion":0.00028395652770996,"tablepress":0.018756151199341,"theme-my-login":0.033679008483887,"wordpress-access-control":0.0084476470947266}},"memory":66584576,"stacksize":34340,"queries":71}
{"url":"\/?ai1ec_render_js=common_backend&is_backend=true&ver=2.1.9","ip":"18.111.102.227","pid":15278,"date":"2015-01-22T20:10:10+00:00","theme_name":"\/home\/content\/27\/9773927\/html\/LAG\/wp-content\/themes\/antioch-free\/functions.php","runtime":{"total":5.1863777637482,"wordpress":0.56300187110901,"theme":0.084726572036743,"plugins":4.0289127826691,"profile":0.49687337875366,"breakdown":{"p3-profiler":0.0036845207214355,"admin-bar-disabler":0.00050139427185059,"advanced-sidebar-menu":0.0036554336547852,"all-in-one-event-calendar":0.17255091667175,"audio-player":0.0020129680633545,"bibly":0.0040240287780762,"captcha":0.015193223953247,"category-post-widget":0.0014467239379883,"comprehensive-google-map-plugin":0.016847372055054,"connections-link":0.0023601055145264,"connections":0.12555503845215,"contact-form-plugin":0.0012016296386719,"jetpack":0.25801014900208,"ml-slider":0.0043761730194092,"posts-in-page":0.0015265941619873,"subscribe2":3.360090970993,"tablepress-automatic-url-conversion":0.00036907196044922,"tablepress":0.011009216308594,"theme-my-login":0.023371696472168,"w3-total-cache":0.0133376121521,"wordpress-access-control":0.0077879428863525}},"memory":50069504,"stacksize":10071,"queries":49}
